{
  "created": {
    "actions": [
      "retrieve"
    ]
  },
  "type": "testpage",
  "title": "testpage",
  "buttons": [
    {
      "label": "创建",
      "action": "showCreateDialog",
      "type": "primary",
      "size": "small"
    }
  ],
  "filter": {
    "form": {
      "inline": true,
      "size": "mini",
      "items": [
        {
          "type": "Input",
          "label": "名称",
          "state": {
            "value": ""
          }
        },
        {
          "type": "Input",
          "label": "产品ID号",
          "state": {
            "value": ""
          }
        },
        {
          "type": "Select",
          "label": "选择类型",
          "state": {
            "value": "",
            "options": [
              {
                "value": "选项一",
                "label": "黄金糕"
              },
              {
                "value": "选项二",
                "label": "双皮奶"
              },
              {
                "value": "选项3",
                "label": "蚵仔煎"
              },
              {
                "value": "选项4",
                "label": "龙须面"
              },
              {
                "value": "选项5",
                "label": "北京烤鸭"
              }
            ]
          }
        },
        {
          "type": "Button",
          "state": {
            "label": "搜索",
            "type": "primary",
            "action": "toFilter"
          }
        }
      ]
    }
  },
  "table": {
    "type": [
      "selection",
      "index"
    ],
    "columns": [
      {
        "label": "名称",
        "prop": "name"
      },
      {
        "label": "产品ID",
        "prop": "id"
      },
      {
        "label": "背景图片",
        "prop": "bgc",
        "scope": {
          "type": "ImageBox",
          "state": {}
        }
      },
      {
        "label": "价格",
        "prop": "price"
      },
      {
        "label": "类型",
        "prop": "kinds"
      },
      {
        "label": "创建时间",
        "prop": "created"
      },
      {
        "label": "操作",
        "prop": "action",
        "scope": [
          {
            "label": "编辑",
            "type": "primary"
          },
          {
            "label": "删除",
            "type": "danger"
          }
        ]
      }
    ],
    "data": [
      {
        "name": "文化",
        "id": "001",
        "bgc": "",
        "price": "1",
        "kinds": "人文",
        "created": "2015-01-01"
      },
      {
        "name": "科技",
        "id": "002",
        "bgc": "",
        "price": "1",
        "kinds": "科技",
        "created": "2016-01-01"
      },
      {
        "name": "艺术",
        "id": "003",
        "bgc": "",
        "price": "1",
        "kinds": "艺术",
        "created": "2017-01-01"
      }
    ]
  },
  "pagination": {
    "currentPage": 5,
    "pageCount": 20,
    "total": 100,
    "background": "",
    "action": "retrieve"
  },
  "dialogs": {
    "create": {
      "title": "新建",
      "items": [
        "username",
        "password"
      ],
      "values": {},
      "action": "create",
      "visible": false,
      "attributes": {}
    }
  },
  "actions": {
    "meta": {
      "flows": [
        {
          "name": "retrieve",
          "type": "api",
          "url": "/priceinfo/",
          "method": "GET",
          "client_config": {
            "table.data": "data.items"
          }
        }
      ]
    },
    "showCreateDialog": {
      "flows": [
        {
          "name": "assign",
          "type": "assign",
          "client_config": {
            "dialogs.create.visible": true
          }
        }
      ]
    },
    "toFilter": {
      "flows": [
        {
          "name": "api",
          "type": "api",
          "method": "GET",
          "request": {
            "": ""
          },
          "client_config": {

          }
        }
      ]
    }
  }
}
