{
  "type": "table",
  "title": "TablePage",
  "buttons": [
    {
      "label": "Button1"
    },
    {
      "label": "button2"
    }
  ],
  "filter": {
    "form": {
      "inline": true,
      "items": [
        {
          "type": "Input",
          "label": "参数1",
          "state": {
            "value": ""
          }
        },
        {
          "type": "Input",
          "label": "参数2",
          "state": {
            "value": ""
          }
        },
        {
          "type": "Button",
          "state": {
            "label": "search"
          }
        },
        {
          "type": "Button",
          "state": {
            "label": "check"
          }
        }
      ]
    }
  },
  "pagination": {
    "currentPage": 5,
    "pageCount": 20,
    "total": 100,
    "background": ""
  },
  "table": {
    "columns": [
      {
        "label": "Date",
        "prop": "date",
        "scope": {
          "type": "Input",
          "state": {}
        }
      },
      {
        "label": "Send Information",
        "children": [
          {
            "label": "Name",
            "prop": "name"
          },
          {
            "label": "Address",
            "children": [
              {
                "label": "Province",
                "prop": "province"
              },
              {
                "label": "Address",
                "prop": "address"
              },
              {
                "label": "Zip",
                "prop": "zip"
              }
            ]
          }
        ]
      }
    ],
    "data": [
      {
        "date": "2016-05-03",
        "name": "王小虎",
        "province": "上海",
        "city": "普陀区",
        "address": "上海市普陀区金沙江路 1518 弄",
        "zip": 200333
      },
      {
        "date": "2016-05-02",
        "name": "王小虎",
        "province": "上海",
        "city": "普陀区",
        "address": "上海市普陀区金沙江路 1518 弄",
        "zip": 200333
      },
      {
        "date": "2016-05-04",
        "name": "王小虎",
        "province": "上海",
        "city": "普陀区",
        "address": "上海市普陀区金沙江路 1518 弄",
        "zip": 200333
      },
      {
        "date": "2016-05-01",
        "name": "王小虎",
        "province": "上海",
        "city": "普陀区",
        "address": "上海市普陀区金沙江路 1518 弄",
        "zip": 200333
      },
      {
        "date": "2016-05-08",
        "name": "王小虎",
        "province": "上海",
        "city": "普陀区",
        "address": "上海市普陀区金沙江路 1518 弄",
        "zip": 200333
      },
      {
        "date": "2016-05-06",
        "name": "王小虎",
        "province": "上海",
        "city": "普陀区",
        "address": "上海市普陀区金沙江路 1518 弄",
        "zip": 200333
      },
      {
        "date": "2016-05-07",
        "name": "王小虎",
        "province": "上海",
        "city": "普陀区",
        "address": "上海市普陀区金沙江路 1518 弄",
        "zip": 200333
      }
    ]
  },
  "tag": [
    {
      "type": "success",
      "closable": true,
      "content": "one tag",
      "hit": true,
      "size": "small",
      "effect": "light"
    },
    {
      "type": "success",
      "closable": true,
      "content": "one tag",
      "hit": true,
      "size": "small",
      "effect": "light",
      "newTagType": "success"
    },
    {
      "type": "info",
      "closable": true,
      "content": "one tag",
      "hit": true,
      "size": "small",
      "effect": "light",
      "newTagType": "info"
    }
  ]
}